{
  "swagger": "2.0",
  "info": {
    "title": "Sample Tracing Service API",
    "version": "v0.1.0",
    "contact": {
      "name": "Michael Venezia",
      "url": "https://github.com/venezia",
      "email": "mvenezia@gmail.com"
    }
  },
  "schemes": [
    "https",
    "http"
  ],
  "consumes": [
    "application/json"
  ],
  "produces": [
    "application/json"
  ],
  "paths": {
    "/api/v1/item": {
      "get": {
        "summary": "Will return version information about api server",
        "operationId": "GetItemDetails",
        "responses": {
          "200": {
            "description": "",
            "schema": {
              "$ref": "#/definitions/sampletracingserviceGetItemDetailsReply"
            }
          }
        },
        "parameters": [
          {
            "name": "item_id",
            "description": "The item id.",
            "in": "query",
            "required": false,
            "type": "string"
          }
        ],
        "tags": [
          "SampleTracingServiceAPI"
        ]
      }
    },
    "/api/v1/version": {
      "get": {
        "summary": "Will return version information about api server",
        "operationId": "GetVersionInformation",
        "responses": {
          "200": {
            "description": "",
            "schema": {
              "$ref": "#/definitions/sampletracingserviceGetVersionReply"
            }
          }
        },
        "tags": [
          "SampleTracingServiceAPI"
        ]
      }
    }
  },
  "definitions": {
    "GetVersionReplyVersionInformation": {
      "type": "object",
      "properties": {
        "git_version": {
          "type": "string",
          "title": "The tag on the git repository"
        },
        "git_commit": {
          "type": "string",
          "title": "The hash of the git commit"
        },
        "git_tree_state": {
          "type": "string",
          "title": "Whether or not the tree was clean when built"
        },
        "build_date": {
          "type": "string",
          "title": "Date of build"
        },
        "go_version": {
          "type": "string",
          "title": "Version of go used to compile"
        },
        "compiler": {
          "type": "string",
          "title": "Compiler used"
        },
        "platform": {
          "type": "string",
          "title": "Platform it was compiled for / running on"
        }
      }
    },
    "sampletracingserviceGetItemDetailsReply": {
      "type": "object",
      "properties": {
        "name": {
          "type": "string",
          "title": "Item name"
        },
        "popularity_score": {
          "type": "number",
          "format": "float",
          "title": "the score of the item"
        },
        "live": {
          "type": "boolean",
          "format": "boolean",
          "title": "Is the stream live?"
        }
      }
    },
    "sampletracingserviceGetVersionReply": {
      "type": "object",
      "properties": {
        "ok": {
          "type": "boolean",
          "format": "boolean",
          "title": "If operation was OK"
        },
        "version_information": {
          "$ref": "#/definitions/GetVersionReplyVersionInformation",
          "title": "Version Information"
        }
      }
    }
  },
  "externalDocs": {
    "description": "More about sample tracing service API",
    "url": "https://gitlab.com/mvenezia/sample-tracing-service"
  }
}
